Xspec-Parser • xrayr
…
Now lets try to parse this file

General function

xrayr::xspec_parse_output(xspec_output)
#> $model
#> [1] "phabs<1>*constant<2>*powerlaw<3>"
#> 
#> $fit_params
#> # A tibble: 40 × 10
#>    data_group   par n_comp comp   par_comp units  value    error is_frozen tie  
#>    <fct>      <int>  <int> <chr>  <chr>    <chr>  <dbl>    <dbl> <chr>     <chr>
#>  1 1              1      1 phabs  nH       10^22 0.491  NA       +         NA   
#>  2 1              2      2 const… factor   NA    1      NA       +         NA   
#>  3 1              3      3 power… PhoIndex NA    1.94   NA       +         NA   
#>  4 1              4      3 power… norm     NA    0.0123  1.56e-4 NA        NA   
#>  5 2              5      1 phabs  nH       10^22 0.491  NA       NA        =p1  
#>  6 2              6      2 const… factor   NA    0.858   4.43e-2 NA        NA   
#>  7 2              7      3 power… PhoIndex NA    1.94   NA       NA        =p3  
#>  8 2              8      3 power… norm     NA    0.0123 NA       NA        =p4  
#>  9 3              9      1 phabs  nH       10^22 0.491  NA       NA        =p1  
#> 10 3             10      2 const… factor   NA    1.03    6.43e-2 NA        NA   
#> # ℹ 30 more rows
…
Parse model, fit params and err confidence

print(xrayr::xspec_parse_model(xspec_output))
#> [1] "phabs<1>*constant<2>*powerlaw<3>"
print(xrayr::xspec_parse_params(xspec_output))
#> # A tibble: 40 × 10
#>    data_group   par n_comp comp   par_comp units  value    error is_frozen tie  
#>    <fct>      <int>  <int> <chr>  <chr>    <chr>  <dbl>    <dbl> <chr>     <chr>
#>  1 1              1      1 phabs  nH       10^22 0.491  NA       +         NA   
#>  2 1              2      2 const… factor   NA    1      NA       +         NA   
#>  3 1              3      3 power… PhoIndex NA    1.94   NA       +         NA   
#>  4 1              4      3 power… norm     NA    0.0123  1.56e-4 NA        NA   
#>  5 2              5      1 phabs  nH       10^22 0.491  NA       NA        =p1  
#>  6 2              6      2 const… factor   NA    0.858   4.43e-2 NA        NA   
#>  7 2              7      3 power… PhoIndex NA    1.94   NA       NA        =p3  
#>  8 2              8      3 power… norm     NA    0.0123 NA       NA        =p4  
#>  9 3              9      1 phabs  nH       10^22 0.491  NA       NA        =p1  
#> 10 3             10      2 const… factor   NA    1.03    6.43e-2 NA        NA   
#> # ℹ 30 more rows
…
